…
(not relevant for the data set I’m working with)

### Exercise 14

``` r
most_common_artist <- uoe_art %>%
  group_by(artist) %>%
  summarise(count = n()) %>%
  arrange(desc(count))

most_common_artist
```

    ## # A tibble: 550 × 2
    ##    artist               count
    ##    <chr>                <int>
    ##  1 Unknown                119
    ##  2 Emma Gillies            55
    ##  3 <NA>                    40
    ##  4 Joanne Leonie Milne      7
    ##  5 John Bellany             7
    ##  6 John Houston             6
    ##  7 William Gillon           6
    ##  8 Zygmunt Bukowski         6
    ##  9 Alan M. Alexander        5
    ## 10 Alexander F Mitchell     5
    ## # … with 540 more rows
…
